ETC3250/5250: Introduction to Machine Learning
…
For cancer data

vi(class_boost_optimal)

# A tibble: 31 × 2
   Variable             Importance
   <chr>                     <dbl>
 1 concave_points_worst      31.8 
 2 perimeter_worst           18.7 
 3 area_worst                15.7 
 4 concave_points_mean       14.2 
 5 area_se                    5.76
 6 radius_worst               4.83
 7 texture_worst              1.62
 8 smoothness_worst           1.41
 9 concavity_worst            1.34
10 symmetry_worst             1.05
# ℹ 21 more rows

vi(class_rf)

# A tibble: 31 × 2
   Variable             Importance
   <chr>                     <dbl>
 1 concave_points_worst      34.7 
 2 area_worst                31.8 
 3 perimeter_worst           30.8 
 4 concave_points_mean       23.9 
 5 radius_worst              23.8 
 6 concavity_mean             6.49
 7 area_se                    6.43
 8 area_mean                  4.76
 9 radius_mean                3.74
10 texture_worst              3.50
# ℹ 21 more rows
…
