ETC3250/5250: Introduction to Machine Learning
…
\mathbb{R}^3 \rightarrow \mathbb{R}

But how do we find this projection?

Matrix transformations

 A toy data

# A tibble: 600 × 2
      x1    x2
   <dbl> <dbl>
 1    -2 -2   
 2    -2 -1.92
 3    -2 -1.84
 4    -2 -1.76
 5    -2 -1.67
 6    -2 -1.59
 7    -2 -1.51
 8    -2 -1.43
 9    -2 -1.35
10    -2 -1.27
# ℹ 590 more rows
…
