ETC3250/5250: Introduction to Machine Learning
…
Using threshold q = 0.5:

cancer_logistic <- glm(diagnosis ~ radius_mean + concave_points_mean, 
                       data = cancer_train, 
                       family = binomial(link = "logit"))
cancer_pred <- cancer_test %>% 
  mutate(propensity = predict(cancer_logistic, ., type = 'response'),
         pred50 = factor(as.numeric(propensity > 0.5), labels = c("B", "M"), levels = c(0, 1)),
         index = 1:n())

cancer_pred %>% select(propensity, pred50, diagnosis)

# A tibble: 142 × 3
   propensity pred50 diagnosis
        <dbl> <fct>  <fct>    
 1      0.890 M      M        
 2      0.694 M      M        
 3      0.486 B      M        
 4      0.897 M      M        
 5      0.331 B      M        
 6      0.999 M      M        
 7      0.829 M      M        
 8      0.496 B      M        
 9      0.246 B      B        
10      0.999 M      M        
# … with 132 more rows
…
