ETC3250/5250: Introduction to Machine Learning
…
 Predictions from dicriminant models

library(MASS)
qthresh <- 0.5
cancer_pred <- cancer_test %>% 
  mutate(prob_lda = predict(cancer_lda, .)$posterior[, 1],
         prob_qda = predict(cancer_qda, .)$posterior[, 1],
         pred_lda = factor(ifelse(prob_lda > qthresh, "M", "B"), levels = c("M", "B")),
         pred_qda = factor(ifelse(prob_qda > qthresh, "M", "B"), levels = c("M", "B"))) %>% 
  select(prob_lda, prob_qda, pred_lda, pred_qda, diagnosis)

cancer_pred

# A tibble: 142 × 5
   prob_lda prob_qda pred_lda pred_qda diagnosis
      <dbl>    <dbl> <fct>    <fct>    <fct>    
 1    0.730    1.00  M        M        M        
 2    0.446    0.981 B        M        M        
 3    0.257    0.471 B        B        M        
 4    0.733    0.999 M        M        M        
 5    0.149    0.340 B        B        M        
 6    0.997    1.00  M        M        M        
 7    0.608    0.977 M        M        M        
 8    0.257    0.357 B        B        M        
 9    0.115    0.155 B        B        B        
10    0.993    1.00  M        M        M        
# … with 132 more rows
…
