ETC3250/5250: Introduction to Machine Learning
…
 Leave-one-out cross validation (LOOCV)

LOOCV is a special case of \(k\)-fold cross validation where \(k = n\) (or \(n_{Train}\)).

toyota %>% 
  vfold_cv(v = n())

The rsample package has a specific function for this special case that is essentially similar to above:

toyota %>% 
  loo_cv()

# Leave-one-out cross-validation 
# A tibble: 6,738 × 2
   splits           id        
   <list>           <chr>     
 1 <split [6737/1]> Resample1 
 2 <split [6737/1]> Resample2 
 3 <split [6737/1]> Resample3 
 4 <split [6737/1]> Resample4 
 5 <split [6737/1]> Resample5 
 6 <split [6737/1]> Resample6 
 7 <split [6737/1]> Resample7 
 8 <split [6737/1]> Resample8 
 9 <split [6737/1]> Resample9 
10 <split [6737/1]> Resample10
# … with 6,728 more rows
…
\(k\)-fold cross validation is preferred to LOOCV in the perspective of lower variance (the \(n\) fitted models in LOOCV are going to be highly positively correlated).

We usually select \(k=5\) or \(k=10\) to balance the bias-variance trade-off.

Bootstrap

 Bootstrap samples

A bootstrap sample is created by sampling with replacement the original data with the same dimension as the original data.

set.seed(2023) # to replicate results
toyota %>% 
  sample_n(size = n(), replace = TRUE)

# A tibble: 6,738 × 9
   model  year price trans…¹ mileage fuelT…²   tax
   <chr> <dbl> <dbl> <chr>     <dbl> <chr>   <dbl>
 1 C-HR   2019 26499 Automa…    1970 Hybrid    140
 2 Aygo   2018  7800 Manual    12142 Petrol    145
 3 Yaris  2015  6490 Manual    36100 Petrol     30
 4 Yaris  2018 10500 Manual     9290 Petrol    145
 5 Yaris  2018  9595 Manual    20740 Petrol    145
 6 Auris  2016 17490 Automa…   29031 Hybrid      0
 7 Yaris  2014  8498 Automa…   57677 Hybrid      0
 8 PROA…  2019 28456 Automa…    9119 Diesel    145
 9 Yaris  2017  7998 Manual    63978 Petrol    150
10 Auris  2017 15095 Automa…   43405 Hybrid      0
# … with 6,728 more rows, 2 more variables:
#   mpg <dbl>, engineSize <dbl>, and abbreviated
#   variable names ¹​transmission, ²​fuelType
…
