ETC3250/5250: Introduction to Machine Learning
…
library(yardstick)
kaucres <- map_dfr(2:100, function(k) {
    knn_pred <- kknn(Purchase ~ ., 
                   train = training(caravan_split),
                   test = testing(caravan_split),
                   k = k,
                   distance = 2)
    tibble(k = k, AUC = roc_auc_vec(testing(caravan_split)$Purchase, 
                                    knn_pred$prob[, 1]))
  })

kaucres 

# A tibble: 99 × 2
       k   AUC
   <int> <dbl>
 1     2 0.569
 2     3 0.581
 3     4 0.580
 4     5 0.583
 5     6 0.598
 6     7 0.606
 7     8 0.602
 8     9 0.611
 9    10 0.601
10    11 0.605
# … with 89 more rows
…
